﻿[
  {
    "m": {
"identity": 171,
"labels": [
        "Movie"
      ],
"properties": {
"title": "Captain America: The First Avenger",
"released": 2011
      }
    },
    "p": {
"identity": 178,
"labels": [
        "Person"
      ],
"properties": {
"name": "Tommy Lee Jones",
"born": 1946
      }
    }
  },
  {
    "m": {
"identity": 171,
"labels": [
        "Movie"
      ],
"properties": {
"title": "Captain America: The First Avenger",
"released": 2011
      }
    },
    "p": {
"identity": 176,
"labels": [
        "Person"
      ],
"properties": {
"name": "Hugo Weaving",
"born": 1960
      }
    }
  },
  {
    "m": {
"identity": 171,
"labels": [
        "Movie"
      ],
"properties": {
"title": "Captain America: The First Avenger",
"released": 2011
      }
    },
    "p": {
"identity": 172,
"labels": [
        "Person"
      ],
"properties": {
"name": "Joe Johnston",
"born": 1950
      }
    }
  },
  {
    "m": {
"identity": 171,
"labels": [
        "Movie"
      ],
"properties": {
"title": "Captain America: The First Avenger",
"released": 2011
      }
    },
    "p": {
"identity": 173,
"labels": [
        "Person"
      ],
"properties": {
"name": "Christopher Markus",
"born": 1970
      }
    }
  },
  {
    "m": {
"identity": 171,
"labels": [
        "Movie"
      ],
"properties": {
"title": "Captain America: The First Avenger",
"released": 2011
      }
    },
    "p": {
"identity": 175,
"labels": [
        "Person"
      ],
"properties": {
"name": "Chris Evans",
"born": 1981
      }
    }
  },
  {
    "m": {
"identity": 171,
"labels": [
        "Movie"
      ],
"properties": {
"title": "Captain America: The First Avenger",
"released": 2011
      }
    },
    "p": {
"identity": 174,
"labels": [
        "Person"
      ],
"properties": {
"name": "Stephen McFeely",
"born": 1969
      }
    }
  },
  {
    "m": {
"identity": 171,
"labels": [
        "Movie"
      ],
"properties": {
"title": "Captain America: The First Avenger",
"released": 2011
      }
    },
    "p": {
"identity": 177,
"labels": [
        "Person"
      ],
"properties": {
"name": "Samuel L. Jackson",
"born": 1948
      }
    }
  }
]